INDD100551-R
INDD100957-R
INDD103764-R
INDD105769-R
INDD105803-L
INDD112011-R
INDD112653-R
INDD116504-R
INDD116591-R
INDD116607-L
INDD117637-L
INDD119294-L
NDRI64415-R
NDRI64443-R
NDRI64448-L
NDRI64448-R
NDRI64816-L
NDRI64823-L
NDRI65231-L
NDRI65231-R
NDRI65239-L
NDRI65239-R
NDRI65240-L
NDRI65240-R
NDRI65298-L
NDRI65298-R
NDRI65310-L
NDRI65344-L
NDRI65377-L
NDRI65377-R
NDRI65767-L
